%YAML 1.1
%TAG !u! tag:unity3d.com,2011:
--- !u!1045 &1
EditorBuildSettings:
  m_ObjectHideFlags: 0
  serializedVersion: 2
  m_Scenes:
  - enabled: 1
    path: Assets/Scenes/MainMenu.unity
    guid: 790cbe6b43606f24a81bad610dee633e
  - enabled: 1
    path: Assets/Scenes/Levels.unity
    guid: 8a5bd1142ba676e45bd4106e269e5c10
  - enabled: 1
    path: Assets/Scenes/SettingsMenu.unity
    guid: 11cccfbda4bb12f44bd903ed31a90686
  - enabled: 1
    path: Assets/Scenes/Main.unity
    guid: ebf7f5dcf0289494486bf5c6b14d37ba
  - enabled: 1
    path: Assets/Scenes/GameWin.unity
    guid: 5bb1a0b2bca7da549a81e8d468760673
  - enabled: 1
    path: Assets/Scenes/GameLose.unity
    guid: 4b8f724a829803c4b86e982c24f028a9
  - enabled: 1
    path: Assets/Scenes/PauseMenu.unity
    guid: 7bf9168883cff17428636ce34f0e553b
  m_configObjects: {}
