[meta]
Down
Marian Hill
Hard
[/meta]
[proj]
432,piano_white,1,0.75,0,0.75,4,90,0,0
966,piano_black,1,0.67,0,0.67,4,90,0,0
1142,piano_white,1,0.6,0,0.6,4,90,0,0
1679,piano_white_left,1,0.95,0,0.95,4,90,0,0
1679,piano_white_mid,1,0.9,0,0.9,4,90,0,0
1679,piano_white_right,1,0.85,0,0.85,4,90,0,0
1879,piano_black_short,1,0.925,0,0.925,4,90,0,1
1879,piano_black_short,1,0.875,0,0.875,4,90,0,1
3254,piano_white,0,0.25,1,0.25,4,270,0,0
3785,piano_white,0,0.33,1,0.33,4,270,0,0
3984,piano_black,0,0.5,1,0.5,4,270,0,0
4496,piano_white_left,0,0.05,1,0.05,4,270,0,0
4496,piano_white_mid,0,0.1,1,0.1,4,270,0,0
4496,piano_white_right,0,0.15,1,0.15,4,270,0,0
4696,piano_black_short,0,0.075,1,0.075,4,270,0,1
4696,piano_black_short,0,0.125,1,0.125,4,270,0,1
6079,piano_white,1,0.75,0,0.75,4,90,0,0
6612,piano_black,1,0.67,0,0.67,4,90,0,0
6788,piano_white,1,0.5,0,0.5,4,90,0,0
7316,piano_white_left,1,0.95,0,0.95,4,90,0,0
7316,piano_white_mid,1,0.9,0,0.9,4,90,0,0
7316,piano_white_right,1,0.85,0,0.85,4,90,0,0
7516,piano_black_short,1,0.925,0,0.925,4,90,0,1
7516,piano_black_short,1,0.875,0,0.875,4,90,0,1
8904,piano_white,0,0.25,1,0.25,4,270,0,0
9432,piano_white,0,0.33,1,0.33,4,270,0,0
9613,piano_black,0,0.4,1,0.4,4,270,0,0
10146,piano_white_left,0,0.05,1,0.05,4,270,0,0
10146,piano_white_mid,0,0.1,1,0.1,4,270,0,0
10146,piano_white_right,0,0.15,1,0.15,4,270,0,0
10346,piano_black_short,0,0.075,1,0.075,4,270,0,1
10346,piano_black_short,0,0.125,1,0.125,4,270,0,1
10657,word_Didn't,32,Arial,1,1,1,0.1,0.85,0,0.2,2500
11071,word_even,32,Arial,1,1,1,0.15,0.85,0,0.2,2500
11433,word_really,32,Arial,1,1,1,0.2,0.85,0,0.2,2500
11660,piano_white,0.45,1,0.45,0,4,0,0,0
11826,word_wanna,32,Arial,1,1,1,0.26,0.85,0,0.2,2500
12235,word_go,32,Arial,1,1,1,0.31,0.85,0,0.2,2500
12256,piano_black,0.5,1,0.5,0,4,0,0,0
12438,piano_white,0.55,1,0.55,0,4,0,0,0
12984,piano_white,0.05,0,0.05,1,4,180,0,0
12984,piano_white,0.95,0,0.95,1,4,180,0,0
13427,word_But,32,Arial,1,1,1,0.62,0.15,1,0.2,2500
13594,word_if,32,Arial,1,1,1,0.65,0.15,1,0.2,2500
13727,word_you,32,Arial,1,1,1,0.68,0.15,1,0.2,2500
13906,word_get,32,Arial,1,1,1,0.72,0.15,1,0.2,2500
14095,word_me,32,Arial,1,1,1,0.76,0.15,1,0.2,2500
14262,word_out,32,Arial,1,1,1,0.8,0.15,1,0.2,2500
14496,word_you,32,Arial,1,1,1,0.84,0.15,1,0.2,2500
14554,piano_white,0.55,0,0.55,1,4,180,0,0
14641,word_get,32,Arial,1,1,1,0.88,0.15,1,0.2,2500
14797,word_a,32,Arial,1,1,1,0.91,0.15,1,0.2,2500
14964,word_show,32,Arial,1,1,1,0.95,0.15,1,0.2,2500
15083,piano_white,0.5,0,0.5,1,4,180,0,0
15259,piano_black,0.45,0,0.45,1,4,180,0,0
15801,piano_white,0,0.05,1,0.05,4,270,0,0
15801,piano_white,1,0.95,0,0.95,4,90,0,0
16290,word_There's,32,Arial,1,1,1,0.11,0.15,1,0.2,2500
16429,word_so,32,Arial,1,1,1,0.16,0.15,1,0.2,2500
16632,word_many,32,Arial,1,1,1,0.2,0.15,1,0.2,2500
16942,word_bodies,32,Arial,1,1,1,0.26,0.15,1,0.2,2500
17317,piano_white,0.55,0,0.55,1,4,180,0,0
17401,word_on,32,Arial,1,1,1,0.31,0.15,1,0.2,2500
17554,word_the,32,Arial,1,1,1,0.35,0.15,1,0.2,2500
17696,word_floor,32,Arial,1,1,1,0.39,0.15,1,0.2,2500
17884,piano_black,0.5,0,0.5,1,4,180,0,0
18089,piano_white,0.45,0,0.45,1,4,180,0,0
18448,word_so,32,Arial,1,1,1,0.43,0.15,1,0.2,2500
18622,piano_white,0.95,1,0.95,0,4,0,0,0
18622,piano_white,0.05,1,0.05,0,4,0,0,0
18953,word_Baby,32,Arial,1,1,1,0.58,0.85,0,0.2,2500
19348,word_we,32,Arial,1,1,1,0.62,0.85,0,0.2,2500
19521,word_should,32,Arial,1,1,1,0.67,0.85,0,0.2,2500
19710,word_go,32,Arial,1,1,1,0.72,0.85,0,0.2,2500
19916,word_and,32,Arial,1,1,1,0.76,0.85,0,0.2,2500
20078,word_add,32,Arial,1,1,1,0.8,0.85,0,0.2,2500
20154,piano_white,0.45,1,0.45,0,4,0,0,0
20284,word_some,32,Arial,1,1,1,0.85,0.85,0,0.2,2500
20585,word_more,32,Arial,1,1,1,0.9,0.85,0,0.2,2500
20724,piano_white,0.5,1,0.5,0,4,0,0,0
20914,piano_black,0.55,1,0.55,0,4,0,0,0
21265,word_Are,32,Arial,1,1,1,0.15,0.85,1,4.1,2500
21400,word_you,32,Arial,1,1,1,0.18,0.85,1,4,2500
21433,piano_white,1,0.95,0,0.95,4,90,0,0
21433,piano_white,0,0.05,1,0.05,4,270,0,0
22027,word_down,48,Square,1,0,0.808,0.25,0.75,0,3.9,2500
22734,word_down,48,Square,1,0,0.808,0.35,0.65,0,4,2500
23028,piano_white,0.95,0,0.95,1,4,180,0,0
23470,word_down,48,Square,1,0,0.808,0.45,0.55,0,4,2500
23573,piano_black,0.9,0,0.9,1,4,180,0,0
23768,piano_white,0.85,0,0.85,1,4,180,0,0
24238,word_down,48,Square,1,0,0.808,0.55,0.45,0,4,2500
24276,piano_white,0.05,1,0.05,0,4,0,0,0
24276,piano_white,0.1,0,0.1,1,4,180,0,0
24734,word_down,48,Square,1,0,0.808,0.65,0.35,0,4.1,2500
25224,word_down?,48,Square,1,0,0.808,0.75,0.25,0,4.4,2500
25851,piano_white,0,0.95,1,0.95,4,270,0,0
26371,piano_white,0,0.9,1,0.9,4,270,0,0
26564,piano_black,0,0.85,1,0.85,4,270,0,0
27097,piano_black,1,0.05,0,0.05,4,90,0,0
27097,piano_white,0,0.1,1,0.1,4,270,0,0
28596,piano_white,0.95,0,0.95,1,4,180,0,0
29192,piano_black,0.9,0,0.9,1,4,180,0,0
29379,piano_white,0.85,0,0.85,1,4,180,0,0
29924,piano_white,0.05,1,0.05,0,4,0,0,0
29924,piano_white,0.1,0,0.1,1,4,180,0,0
31501,piano_white,0,0.95,1,0.95,4,270,0,0
32021,piano_white,0,0.9,1,0.9,4,270,0,0
32224,piano_black,0,0.85,1,0.85,4,270,0,0
32733,piano_black,1,0.05,0,0.05,4,90,0,0
32733,piano_white,0,0.1,1,0.1,4,270,0,0
33046,word_Everywhere,32,Arial,1,1,1,0.1,0.85,1,10,2500
33618,word_I,32,Arial,1,1,1,0.16,0.85,1,9.428,2500
33782,word_look,32,Arial,1,1,1,0.19,0.85,1,9.264,2500
34011,word_are,32,Arial,1,1,1,0.23,0.85,1,9.035,2500
34151,word_peoples',32,Arial,1,1,1,0.29,0.85,1,8.895,2500
34293,piano_white,1,0.65,0,0.65,4,90,0,0
34655,word_hands,32,Arial,1,1,1,0.36,0.85,1,8.391,2500
34801,piano_black,1,0.57,0,0.57,4,90,0,0
35023,piano_white,1,0.5,0,0.5,4,90,0,0
35572,piano_white,0,0.6,1,0.6,4,270,0,0
35572,piano_white,1,0.45,0,0.45,4,90,0,0
35572,piano_white,0,0.05,1,0.05,4,270,0,0
35572,piano_white,1,0.95,0,0.95,4,90,0,0
35817,word_Thrown,32,Arial,1,1,1,0.6,0.85,1,7.229,2500
36075,word_up,32,Arial,1,1,1,0.65,0.85,1,6.971,2500
36274,word_in,32,Arial,1,1,1,0.68,0.85,1,6.772,2500
36426,word_the,32,Arial,1,1,1,0.71,0.85,1,6.62,2500
36650,word_air,32,Arial,1,1,1,0.74,0.85,1,6.396,2500
36824,word_to,32,Arial,1,1,1,0.77,0.85,1,6.222,2500
37010,word_help,32,Arial,1,1,1,0.81,0.85,1,6.036,2500
37101,piano_white,0,0.35,1,0.35,4,270,0,0
37230,word_them,32,Arial,1,1,1,0.86,0.85,1,5.816,2500
37455,word_dance,32,Arial,1,1,1,0.91,0.85,1,5.591,2500
37663,piano_white,0,0.43,1,0.43,4,270,0,0
37872,piano_black,0,0.6,1,0.6,4,270,0,0
38385,piano_black,1,0.4,0,0.4,4,90,0,0
38385,piano_white,0,0.5,1,0.5,4,270,0,0
38385,piano_white,1,0.05,0,0.05,4,90,0,0
38385,piano_white,0,0.95,1,0.95,4,270,0,0
38732,word_Come,32,Arial,1,1,1,0.1,0.15,0,4.314,2500
38941,word_on,32,Arial,1,1,1,0.14,0.15,0,4.105,2500
39074,word_baby,32,Arial,1,1,1,0.18,0.15,0,3.972,2500
39471,word_catch,32,Arial,1,1,1,0.23,0.15,0,3.575,2500
39717,word_me,32,Arial,1,1,1,0.27,0.15,0,3.329,2500
39903,word_if,32,Arial,1,1,1,0.3,0.15,0,3.143,2500
39926,piano_white,1,0.65,0,0.65,4,90,0,0
40071,word_you,32,Arial,1,1,1,0.33,0.15,0,2.975,2500
40238,word_can,32,Arial,1,1,1,0.37,0.15,0,2.808,2500
40500,piano_black,1,0.57,0,0.57,4,90,0,0
40734,piano_white,1,0.5,0,0.5,4,90,0,0
40882,word_I,32,Arial,1,1,1,0.4,0.15,0,2.164,2500
41214,piano_white,0,0.6,1,0.6,4,270,0,0
41214,piano_white,1,0.45,0,0.45,4,90,0,0
41214,piano_white,0,0.05,1,0.05,4,270,0,0
41214,piano_white,1,0.95,0,0.95,4,90,0,0
41577,word_Know,32,Arial,1,1,1,0.6,0.15,0,1.469,2500
41755,word_you,32,Arial,1,1,1,0.65,0.15,0,1.291,2500
41943,word_don't,32,Arial,1,1,1,0.7,0.15,0,1.103,2500
42127,word_have,32,Arial,1,1,1,0.75,0.15,0,0.919,2500
42306,word_any,32,Arial,1,1,1,0.79,0.15,0,0.74,2500
42631,word_other,32,Arial,1,1,1,0.84,0.15,0,0.415,2500
42813,piano_white,0,0.35,1,0.35,4,270,0,0
42995,word_plans,32,Arial,1,1,1,0.89,0.15,0,0.051,2500
43317,piano_white,0,0.43,1,0.43,4,270,0,0
43510,piano_black,0,0.6,1,0.6,4,270,0,0
44000,word_Are,32,Arial,1,1,1,0.15,0.85,1,4.1,2500
44030,piano_black,1,0.4,0,0.4,4,90,0,0
44030,piano_white,0,0.5,1,0.5,4,270,0,0
44030,piano_white,1,0.05,0,0.05,4,90,0,0
44030,piano_white,0,0.95,1,0.95,4,270,0,0
44135,word_you,32,Arial,1,1,1,0.18,0.85,1,4,2500
44562,word_down,48,Square,1,0,0.808,0.25,0.75,0,3.9,2500
45269,word_down,48,Square,1,0,0.808,0.35,0.65,0,4,2500
45639,piano_white,0.75,0,0.75,1,1,180,10,0
46005,word_down,48,Square,1,0,0.808,0.45,0.55,0,4,2500
46151,piano_black,0.4,0,0.4,1,1,180,10,0
46376,piano_white,0.15,0,0.15,1,1,180,10,0
46773,word_down,48,Square,1,0,0.808,0.55,0.45,0,4,2500
46869,piano_white,0.55,0,0.55,1,1,180,10,0
46869,piano_white,0.05,0,0.05,1,1,180,10,0
46869,piano_white,0.95,0,0.95,1,1,180,10,0
46869,piano_white,0.1,0,0.1,1,1,180,10,0
47269,word_down,48,Square,1,0,0.808,0.65,0.35,0,4.1,2500
47759,word_down?,48,Square,1,0,0.808,0.75,0.25,0,4.4,2500
48424,piano_white,0,0.15,1,0.15,1,270,10,0
48964,piano_white,0,0.55,1,0.55,1,270,10,0
49151,piano_black,0,0.75,1,0.75,1,270,10,0
49722,piano_white,0,0.4,1,0.4,1,270,10,0
49722,piano_black,0,0.05,1,0.05,1,270,10,0
49722,piano_white,0,0.95,1,0.95,1,270,10,0
49722,piano_white,0,0.1,1,0.1,1,270,10,0
51256,piano_white,1,0.85,0,0.85,1,90,10,0
51805,piano_black,1,0.45,0,0.45,1,90,10,0
51975,piano_white,1,0.25,0,0.25,1,90,10,0
52513,piano_white,1,0.6,0,0.6,1,90,10,0
52513,piano_white,1,0.05,0,0.05,1,90,10,0
52513,piano_white,1,0.95,0,0.95,1,90,10,0
52513,piano_white,1,0.1,0,0.1,1,90,10,0
54080,piano_white,0.25,1,0.25,0,1,0,10,0
54610,piano_white,0.6,1,0.6,0,1,0,10,0
54810,piano_black,0.85,1,0.85,0,1,0,10,0
55325,piano_white,0.45,1,0.45,0,1,0,10,0
55325,piano_black,0.05,1,0.05,0,1,0,10,0
55325,piano_white,0.95,1,0.95,0,1,0,10,0
55325,piano_white,0.1,1,0.1,0,1,0,10,0
60000,event_level_complete
[/proj]